^E:\WINTER 2018\CIS200L\PROGRAM_3B_SCHOOL\PROGRAM_3B_SCHOOL\DEBUG\BOAT.OBJ|E:\WINTER 2018\CIS200L\PROGRAM_3B_SCHOOL\PROGRAM_3B_SCHOOL\DEBUG\CAR.OBJ|E:\WINTER 2018\CIS200L\PROGRAM_3B_SCHOOL\PROGRAM_3B_SCHOOL\DEBUG\LANDVEHICLE.OBJ|E:\WINTER 2018\CIS200L\PROGRAM_3B_SCHOOL\PROGRAM_3B_SCHOOL\DEBUG\PLANE.OBJ|E:\WINTER 2018\CIS200L\PROGRAM_3B_SCHOOL\PROGRAM_3B_SCHOOL\DEBUG\SOURCE.OBJ|E:\WINTER 2018\CIS200L\PROGRAM_3B_SCHOOL\PROGRAM_3B_SCHOOL\DEBUG\STUB_MAIN_LANDVEHICLE.OBJ|E:\WINTER 2018\CIS200L\PROGRAM_3B_SCHOOL\PROGRAM_3B_SCHOOL\DEBUG\STUB_MAIN_VEHICLE.OBJ|E:\WINTER 2018\CIS200L\PROGRAM_3B_SCHOOL\PROGRAM_3B_SCHOOL\DEBUG\TRUCK.OBJ|E:\WINTER 2018\CIS200L\PROGRAM_3B_SCHOOL\PROGRAM_3B_SCHOOL\DEBUG\VEHICLE.OBJ
/OUT:"E:\WINTER 2018\CIS200L\PROGRAM_3B_SCHOOL\DEBUG\PROGRAM_3B_SCHOOL.EXE" /INCREMENTAL /NOLOGO KERNEL32.LIB USER32.LIB GDI32.LIB WINSPOOL.LIB COMDLG32.LIB ADVAPI32.LIB SHELL32.LIB OLE32.LIB OLEAUT32.LIB UUID.LIB ODBC32.LIB ODBCCP32.LIB /MANIFEST /MANIFESTUAC:"level='asInvoker' uiAccess='false'" /manifest:embed /DEBUG:FASTLINK /PDB:"E:\WINTER 2018\CIS200L\PROGRAM_3B_SCHOOL\DEBUG\PROGRAM_3B_SCHOOL.PDB" /SUBSYSTEM:CONSOLE /TLBID:1 /DYNAMICBASE /NXCOMPAT /IMPLIB:"E:\WINTER 2018\CIS200L\PROGRAM_3B_SCHOOL\DEBUG\PROGRAM_3B_SCHOOL.LIB" /MACHINE:X86 DEBUG\BOAT.OBJDEBUG\CAR.OBJDEBUG\LANDVEHICLE.OBJDEBUG\PLANE.OBJDEBUG\SOURCE.OBJDEBUG\STUB_MAIN_LANDVEHICLE.OBJDEBUG\STUB_MAIN_VEHICLE.OBJDEBUG\TRUCK.OBJDEBUG\VEHICLE.OBJ
^F:\WINTER 2018\CIS200L\PROGRAM_3B_SCHOOL\PROGRAM_3B_SCHOOL\DEBUG\BOAT.OBJ|F:\WINTER 2018\CIS200L\PROGRAM_3B_SCHOOL\PROGRAM_3B_SCHOOL\DEBUG\CAR.OBJ|F:\WINTER 2018\CIS200L\PROGRAM_3B_SCHOOL\PROGRAM_3B_SCHOOL\DEBUG\LANDVEHICLE.OBJ|F:\WINTER 2018\CIS200L\PROGRAM_3B_SCHOOL\PROGRAM_3B_SCHOOL\DEBUG\PLANE.OBJ|F:\WINTER 2018\CIS200L\PROGRAM_3B_SCHOOL\PROGRAM_3B_SCHOOL\DEBUG\SOURCE.OBJ|F:\WINTER 2018\CIS200L\PROGRAM_3B_SCHOOL\PROGRAM_3B_SCHOOL\DEBUG\STUB_MAIN_LANDVEHICLE.OBJ|F:\WINTER 2018\CIS200L\PROGRAM_3B_SCHOOL\PROGRAM_3B_SCHOOL\DEBUG\STUB_MAIN_VEHICLE.OBJ|F:\WINTER 2018\CIS200L\PROGRAM_3B_SCHOOL\PROGRAM_3B_SCHOOL\DEBUG\TRUCK.OBJ|F:\WINTER 2018\CIS200L\PROGRAM_3B_SCHOOL\PROGRAM_3B_SCHOOL\DEBUG\VEHICLE.OBJ
/OUT:"F:\WINTER 2018\CIS200L\PROGRAM_3B_SCHOOL\DEBUG\PROGRAM_3B_SCHOOL.EXE" /INCREMENTAL /NOLOGO KERNEL32.LIB USER32.LIB GDI32.LIB WINSPOOL.LIB COMDLG32.LIB ADVAPI32.LIB SHELL32.LIB OLE32.LIB OLEAUT32.LIB UUID.LIB ODBC32.LIB ODBCCP32.LIB /MANIFEST /MANIFESTUAC:"level='asInvoker' uiAccess='false'" /manifest:embed /DEBUG:FASTLINK /PDB:"F:\WINTER 2018\CIS200L\PROGRAM_3B_SCHOOL\DEBUG\PROGRAM_3B_SCHOOL.PDB" /SUBSYSTEM:CONSOLE /TLBID:1 /DYNAMICBASE /NXCOMPAT /IMPLIB:"F:\WINTER 2018\CIS200L\PROGRAM_3B_SCHOOL\DEBUG\PROGRAM_3B_SCHOOL.LIB" /MACHINE:X86 DEBUG\BOAT.OBJDEBUG\CAR.OBJDEBUG\LANDVEHICLE.OBJDEBUG\PLANE.OBJDEBUG\SOURCE.OBJDEBUG\STUB_MAIN_LANDVEHICLE.OBJDEBUG\STUB_MAIN_VEHICLE.OBJDEBUG\TRUCK.OBJDEBUG\VEHICLE.OBJ
